Project 1: History of Philosophy
…
sentences_by_publication %>%
    arrange(desc(n_sentences)) %>%
    dplyr::select(author)

## Adding missing grouping variables: `title`, `school`

## # A tibble: 59 x 3
## # Groups:   title, school, author [59]
##    title                      school          author     
##    <chr>                      <fct>           <chr>      
##  1 Aristotle - Complete Works Aristotle       Aristotle  
##  2 Plato - Complete Works     Plato           Plato      
##  3 Lewis - Papers             Analytic        Lewis      
##  4 The Second Sex             Feminism        Beauvoir   
##  5 The Search After Truth     Rationalism     Malebranche
##  6 Capital                    Communism       Marx       
##  7 The Wealth Of Nations      Capitalism      Smith      
##  8 Science Of Logic           German idealism Hegel      
##  9 Philosophical Troubles     Analytic        Kripke     
## 10 Being And Time             Phenomenology   Heidegger  
## # ... with 49 more rows
…
